…
## Exploratory Data Analysis

Now that our data is clean, we can conduct some EDA and determine
whether any further manipulation to be made on the data as well as
selecting the most appropriate features for the models.

``` r
# number of tracks per genre
spotify_clean %>%
  group_by(genre) %>%
  count() %>%
  arrange(n)
```

    ## # A tibble: 26 x 2
    ## # Groups:   genre [26]
    ##    genre                n
    ##    <fct>            <int>
    ##  1 A Capella          119
    ##  2 Rap               1456
    ##  3 Rock              2227
    ##  4 Pop               2417
    ##  5 Indie             3318
    ##  6 Soul              4430
    ##  7 R&B               5353
    ##  8 Children's Music  6741
    ##  9 Country           7383
    ## 10 Hip-Hop           7413
    ## # ... with 16 more rows
…
